<svg width="60" height="60" viewBox="0 0 60 60" fill="none" xmlns="http://www.w3.org/2000/svg">
<path d="M30.2164 55C29.9068 55 29.5972 54.9289 29.3179 54.7843L20.3151 50.124C17.7605 48.8002 15.7622 47.3146 14.2017 45.5839C10.7864 41.7988 8.88614 36.94 8.85594 31.8998L8.75023 15.3107C8.73765 13.3961 9.97342 11.6776 11.8208 11.0304L28.3514 5.26697C29.333 4.91641 30.4278 4.91151 31.427 5.24981L48.0205 10.8171C49.8779 11.4373 51.1338 13.1436 51.1439 15.0557L51.2496 31.6571C51.2823 36.6899 49.4476 41.5684 46.0851 45.3951C44.5422 47.1504 42.5615 48.658 40.0321 50.0064L31.1099 54.772C30.833 54.9216 30.5259 54.9975 30.2164 55Z" fill="#3ECCAA"/>
<path d="M28.2981 35.8023C27.8148 35.8047 27.3316 35.6307 26.9591 35.2728L22.167 30.664C21.4271 29.9482 21.4195 28.7862 22.1519 28.0654C22.8843 27.3423 24.0798 27.3349 24.8223 28.0483L28.2704 31.3627L36.6892 23.062C37.4241 22.3388 38.6196 22.3314 39.3596 23.0448C40.1021 23.7606 40.1096 24.9251 39.3772 25.6434L29.6295 35.2556C29.262 35.6184 28.7813 35.7998 28.2981 35.8023Z" fill="#E0E0E0"/>
</svg>
